…
```
## Rows: 30220 Columns: 4
## ── Column specification ────────────────────────────────────────────────────────
## Delimiter: ","
## chr  (2): Entity, Code
## dbl  (1): Daily hospital occupancy
## date (1): Day
## 
## ℹ Use `spec()` to retrieve the full column specification for this data.
## ℹ Specify the column types or set `show_col_types = FALSE` to quiet this message.
```

```
## # A tibble: 30,220 × 4
##    Entity    Code  Day        `Daily hospital occupancy`
##    <chr>     <chr> <date>                          <dbl>
##  1 Australia AUS   2020-03-31                        426
##  2 Australia AUS   2020-04-01                        441
##  3 Australia AUS   2020-04-02                        415
##  4 Australia AUS   2020-04-03                        457
##  5 Australia AUS   2020-04-04                        490
##  6 Australia AUS   2020-04-05                        457
##  7 Australia AUS   2020-04-06                        305
##  8 Australia AUS   2020-04-07                        263
##  9 Australia AUS   2020-04-08                        262
## 10 Australia AUS   2020-04-09                        247
## # … with 30,210 more rows
```
…
```
## Rows: 103965 Columns: 5
## ── Column specification ────────────────────────────────────────────────────────
## Delimiter: ","
## chr  (3): Entity, Code, 142753-annotations
## dbl  (1): new_tests_per_thousand_7day_smoothed
## date (1): Day
## 
## ℹ Use `spec()` to retrieve the full column specification for this data.
## ℹ Specify the column types or set `show_col_types = FALSE` to quiet this message.
```

```
## # A tibble: 103,965 × 5
##    Entity      Code  Day        new_tests_per_thousand_7day_sm… `142753-annota…`
##    <chr>       <chr> <date>                               <dbl> <chr>           
##  1 Afghanistan AFG   2022-02-05                           0.032 <NA>            
##  2 Afghanistan AFG   2022-02-06                           0.032 <NA>            
##  3 Afghanistan AFG   2022-02-07                           0.032 <NA>            
##  4 Afghanistan AFG   2022-02-08                           0.032 <NA>            
##  5 Afghanistan AFG   2022-02-09                           0.032 <NA>            
##  6 Afghanistan AFG   2022-02-10                           0.032 <NA>            
##  7 Afghanistan AFG   2022-02-11                           0.032 <NA>            
##  8 Afghanistan AFG   2022-02-12                           0.032 <NA>            
##  9 Afghanistan AFG   2022-02-13                           0.032 <NA>            
## 10 Afghanistan AFG   2022-02-14                           0.032 <NA>            
## # … with 103,955 more rows
```
…
```
## New names:
## * `` -> ...2
## * `` -> ...3
## * `` -> ...4
## * `` -> ...5
## * `` -> ...6
```

```
## # A tibble: 44 × 6
##    `Table 1. Employed persons who teleworked or …` ...2  ...3  ...4  ...5  ...6 
##    <chr>                                           <chr> <chr> <chr> <chr> <chr>
##  1 [Numbers in thousands]                          <NA>  <NA>  <NA>  <NA>  <NA> 
##  2 <NA>                                            Augu… <NA>  <NA>  <NA>  <NA> 
##  3 <NA>                                            <NA>  Pers… <NA>  Perc… <NA> 
##  4 Characteristic                                  Tota… Total Perc… Tota… Pers…
##  5 Total, 16 years and over                        1587… 10305 6.5   100   100  
##  6     16 to 24 years                              20110 532   2.6   12.7  5.2  
##  7        16 to 19 years                           6247  61    1     3.9   0.6  
##  8        20 to 24 years                           13864 472   3.4   8.69… 4.59…
##  9     25 to 54 years                              1016… 7696  7.6   64    74.7 
## 10        25 to 34 years                           35362 2983  8.4   22.3  28.9 
## # … with 34 more rows
```
…
