…
Which destination airport is the worst airport for arrival time?

```r
flights %>%
  count(as.factor(dest))
```

```
## # A tibble: 105 × 2
##    `as.factor(dest)`     n
##    <fct>             <int>
##  1 ABQ                 254
##  2 ACK                 265
##  3 ALB                 439
##  4 ANC                   8
##  5 ATL               17215
##  6 AUS                2439
##  7 AVL                 275
##  8 BDL                 443
##  9 BGR                 375
## 10 BHM                 297
## # … with 95 more rows
```
…
